com/adsantamaria/parameters/Parameter.class
com/adsantamaria/commands/QuitCommand.class
com/adsantamaria/commands/MakeDirectoryCommand.class
com/adsantamaria/Directory.class
com/adsantamaria/File.class
com/adsantamaria/exceptions/UnrecognizedCommandException.class
com/adsantamaria/MockContext.class
com/adsantamaria/commands/Command.class
com/adsantamaria/commands/PwdCommand.class
com/adsantamaria/Solution.class
com/adsantamaria/commands/ListContentsCommand.class
com/adsantamaria/commands/CommandWithParameter.class
com/adsantamaria/parameters/DirNameParameter.class
com/adsantamaria/commands/ChangeDirectoryCommand.class
com/adsantamaria/exceptions/InvalidCommandException.class
com/adsantamaria/CommandParser.class
com/adsantamaria/parameters/RecursiveParameter.class
com/adsantamaria/commands/CreateFileCommand.class
com/adsantamaria/parameters/FileNameParameter.class
